Rによる探索的データ分析入門
…
実験データを読み込む

ここでは読み込みの手順は省略し、Rに組み込みのテスト用データを使うことにします。 使用するデータは生態学の計測データで、アヤメの花弁（petal）とガク（sepal）の長さと幅を、3つの種について50個体ずつ計測したデータです。

## # A tibble: 150 x 5
##   Sepal.Length Sepal.Width Petal.Length Petal.Width Species
##          <dbl>       <dbl>        <dbl>       <dbl> <fct>  
## 1          5.1         3.5          1.4         0.2 setosa 
## 2          4.9         3            1.4         0.2 setosa 
## 3          4.7         3.2          1.3         0.2 setosa 
## 4          4.6         3.1          1.5         0.2 setosa 
## 5          5           3.6          1.4         0.2 setosa 
## # ... with 145 more rows

分析しやすいよう整形する

元々のデータでは部位ごとの計測項目が変数（列）になっていましたが、部位を変数にした方が扱いやすいと思います。 そこで、以下のように整形します。

iris_long <- iris %>% 
  rownames_to_column("id") %>% 
  mutate(id = as.integer(id)) %>% 
  gather(key, value, matches("Length|Width")) %>% 
  separate(key, into = c("Part", "amount")) %>% 
  spread(amount, value)

## # A tibble: 300 x 5
##      id Species Part  Length Width
##   <int> <fct>   <chr>  <dbl> <dbl>
## 1     1 setosa  Petal    1.4   0.2
## 2     1 setosa  Sepal    5.1   3.5
## 3     2 setosa  Petal    1.4   0.2
## 4     2 setosa  Sepal    4.9   3  
## 5     3 setosa  Petal    1.3   0.2
## # ... with 295 more rows
…
